{
  "items": [
    {
      "number": 1500,
      "description": "Contributors"
    },
    {
      "number": 294,
      "description": "Pull request"
    },
    {
      "number": "52,535",
      "description": "Releases"
    },
    {
      "number": 2,
      "description": "Stars"
    }
  ]
}
