{
  "menu_title": "Documentation",
  "items": [
    {
      "title": "Second level section",
      "href": "#second-level",
      "child_items": [
         {
          "title": "Third level section Third level section Third level section",
          "href": "#third-level"
        },
        {
          "title": "Third level section",
          "href": "#third-level"
        }
      ]
    },
    {
      "title": "Second level section Second level section Second level section",
      "href": "#second-level",
      "child_items": [
         {
          "title": "Third level section",
          "href": "#third-level"
        },
        {
          "title": "Third level section",
          "href": "#third-level"
        }
      ]
    },
    {
      "title": "Second level section",
      "href": "#second-level"
    },
    {
      "title": "Second level section Second level section Second level section Second level section",
      "href": "#second-level",
      "child_items": [
         {
          "title": "Third level section",
          "href": "#third-level"
        },
        {
          "title": "Third level section",
          "href": "#third-level"
        }
      ]
    }
  ]
}
