{
  "header": {
    "name": "<strong>Clear Linux<sup>*</sup></strong> Project",
    "image":  "./assets/clear_linux_logo.svg",
    "menu_items": [
      {
        "title": "Home",
        "href": "#home"
      },
      {
        "title": "Projects",
        "href": "#projects",
        "child_items": [
          {
            "title": "<strong>Clear Linux<sup>*</sup></strong> Project",
            "href": "#clear-linux"
          },
          {
            "title": "Clear Containers",
            "href": "#clear-containers"
          },
          {
            "title": "Ciao",
            "href": "#ciao"
          }
        ]
      },
      {
        "title": "Downloads",
        "href": "#downloads"
      },
      {
        "title": "Documentation",
        "href": "#documentation",
        "active": "active"
      },
      {
        "title": "Community",
        "href": "#community"
      },
      {
        "title": "Blog",
        "href": "#blog"
      }
    ]
  },
  "page_header": {
    "page_title": "Documentation page",
    "tabs": {
      "items": [
        {
          "title": "First level section",
          "href": "#First-level",
          "child_items": [
            {
              "title": "Second level section",
              "href": "#second-level",
              "child_items": [
                 {
                  "title": "Third level section",
                  "href": "#third-level"
                },
                {
                  "title": "Third level section",
                  "href": "#third-level"
                }
              ]
            }
          ]
        },
        {
          "title": "First level section",
          "href": "#First-level",
          "child_items": [
            {
              "title": "Second level section",
              "href": "#second-level",
              "child_items": [
                 {
                  "title": "Third level section",
                  "href": "#third-level"
                },
                {
                  "title": "Third level section",
                  "href": "#third-level"
                }
              ]
            }
          ]
        },
        {
          "title": "First level section",
          "href": "#First-level",
          "child_items": [
            {
              "title": "Second level section",
              "href": "#second-level",
              "child_items": [
                 {
                  "title": "Third level section",
                  "href": "#third-level"
                },
                {
                  "title": "Third level section",
                  "href": "#third-level"
                }
              ]
            }
          ]
        }
      ]
    },
    "breadcrumb": [
      {
        "title": "Home",
        "href": "#Home"
      },
      {
        "title": "Documentation",
        "href": "#documentation"
      },
      {
        "title": "Documentation page",
        "current_class": "current"
      }
    ]
  },
  "content":
  {
    "items":
      [
        "<h1>Lorem Ipsum Dolor Sit Amet Consect</h1><p>Lorem ipsum dolor sit amet, consectetur adipisicing elit, sed do eiusmod tempor incididunt ut labore et dolore magna aliqua. Ut enim ad minim veniam, quis nostrud exercitation ullamco laboris nisi ut aliquip ex ea commodo consequat. </p><p>Duis aute irure dolor in reprehenderit in voluptate velit esse cillum dolore eu fugiat nulla pariatur. Excepteur sint occaecat cupidatat non proident, sunt in culpa qui officia deserunt mollit anim id est laborum. Donec elementum ligula eu sapien consequat eleifend. </p><p>Donec nec dolor erat, condimentum sagittis sem. Praesent porttitor porttitor risus, dapibus rutrum ipsum gravida et. Integer lectus nisi, facilisis sit amet eleifend nec, pharetra ut augue. Integer quam nunc, consequat nec egestas ac, volutpat ac nisi. </p>",
        "<h1>Lorem Ipsum Dolor Sit Amet Consect</h1><p>Lorem ipsum dolor sit amet, consectetur adipisicing elit, sed do eiusmod tempor incididunt ut labore et dolore magna aliqua. Ut enim ad minim veniam, quis nostrud exercitation ullamco laboris nisi ut aliquip ex ea commodo consequat. </p><p>Duis aute irure dolor in reprehenderit in voluptate velit esse cillum dolore eu fugiat nulla pariatur. Excepteur sint occaecat cupidatat non proident, sunt in culpa qui officia deserunt mollit anim id est laborum. Donec elementum ligula eu sapien consequat eleifend. </p><p>Donec nec dolor erat, condimentum sagittis sem. Praesent porttitor porttitor risus, dapibus rutrum ipsum gravida et. Integer lectus nisi, facilisis sit amet eleifend nec, pharetra ut augue. Integer quam nunc, consequat nec egestas ac, volutpat ac nisi. </p>",
        "<h1>Lorem Ipsum Dolor Sit Amet Consect</h1><p>Lorem ipsum dolor sit amet, consectetur adipisicing elit, sed do eiusmod tempor incididunt ut labore et dolore magna aliqua. Ut enim ad minim veniam, quis nostrud exercitation ullamco laboris nisi ut aliquip ex ea commodo consequat. </p><p>Duis aute irure dolor in reprehenderit in voluptate velit esse cillum dolore eu fugiat nulla pariatur. Excepteur sint occaecat cupidatat non proident, sunt in culpa qui officia deserunt mollit anim id est laborum. Donec elementum ligula eu sapien consequat eleifend. </p><p>Donec nec dolor erat, condimentum sagittis sem. Praesent porttitor porttitor risus, dapibus rutrum ipsum gravida et. Integer lectus nisi, facilisis sit amet eleifend nec, pharetra ut augue. Integer quam nunc, consequat nec egestas ac, volutpat ac nisi. </p>"
      ]
  },
  "aside": {
    "sidebar_nav": {
      "items": [
        {
          "title": "Second level section",
          "href": "#second-level",
          "child_items": [
             {
              "title": "Third level section",
              "href": "#third-level"
            },
            {
              "title": "Third level section",
              "href": "#third-level"
            }
          ]
        },
        {
          "title": "Second level section",
          "href": "#second-level",
          "child_items": [
             {
              "title": "Third level section",
              "href": "#third-level"
            },
            {
              "title": "Third level section",
              "href": "#third-level"
            }
          ]
        },
        {
          "title": "Second level section",
          "href": "#second-level",
          "child_items": [
             {
              "title": "Third level section",
              "href": "#third-level"
            },
            {
              "title": "Third level section",
              "href": "#third-level"
            }
          ]
        }
      ]
    }
  },
  "footer": {
    "copyright": "COPYRIGHT © 2017 INTEL CORPORATION. ALL RIGHTS RESERVED <br />*OTHER NAMES AND BRANDS MAY BE CLAIMED AS THE PROPERTY OF OTHERS",
    "menu": {
      "items": [
        {
          "title": "*Trademarks",
          "href": "#Trademarks"
        },
        {
          "title": "Contact",
          "href": "#Contact"
        },
        {
          "title": "Privacy & Terms",
          "href": "#Privacy-terms"
        },
        {
          "title": "Cookies",
          "href": "#Cookies"
        }
      ]
    },
    "social_media": {
      "items": [
        {
          "title": "Facebook",
          "href": "#Facebook",
          "icon": "fa-facebook-official"
        },
        {
          "title": "Twitter",
          "href": "#Privacy-terms",
          "icon": "fa-twitter-square"
        },
        {
          "title": "Youtube",
          "href": "#Youtube",
          "icon": "fa-youtube-square"
        }
      ]
    }
  }
}
